<svg xmlns="http://www.w3.org/2000/svg" width="22" height="22" version="1">
 <rect style="opacity:0.2" width="20" height="12" x="1" y="8.5" rx="1" ry="1"/>
 <path style="fill:#006655" d="M 1,16 C 1,16.554 1.446,17 2,17 H 20 C 20.554,17 21,16.554 21,16 V 5 C 21,4.446 20.554,4 20,4 H 11 C 9.5,4 9,2 7.5,2 H 2 C 1.446,2 1,2.446 1,3"/>
 <rect style="opacity:0.2" width="20" height="12" x="1" y="7.5" rx="1" ry="1"/>
 <rect style="fill:#e4e4e4" width="16" height="8" x="3" y="6" rx="1" ry="1"/>
 <rect style="fill:#00a489" width="20" height="12" x="1" y="8" rx="1" ry="1"/>
 <path style="opacity:0.1;fill:#ffffff" d="M 2,2 C 1.446,2 1,2.446 1,3 V 3.5 C 1,2.946 1.446,2.5 2,2.5 H 7.5 C 9,2.5 9.5,4.5 11,4.5 H 20 C 20.554,4.5 21,4.946 21,5.5 V 5 C 21,4.446 20.554,4 20,4 H 11 C 9.5,4 9,2 7.5,2 Z"/>
 <path style="fill:#1d344f" d="M 13.117,11 C 12.997,11.001 12.887,11.039 12.783,11.113 12.52,11.302 11.969,11.503 11,11.504 10.03,11.505 9.4802,11.302 9.2172,11.113 9.1132,11.039 9.0142,11.003 8.8928,11.004 8.7716,11.004 8.6329,11.037 8.4904,11.113 7.9716,11.387 7.494,12.283 7.2346,13.445 7.0134,14.433 6.9328,15.783 7.0647,16.326 7.1797,16.793 7.3786,17 7.7307,17 8.2537,16.991 8.9098,16.409 9.3262,15.623 9.6282,15.188 10.326,14.99 11,15.012 11.674,14.988 12.372,15.188 12.674,15.623 13.091,16.408 13.747,16.991 14.27,17 14.622,17 14.821,16.793 14.936,16.326 15.067,15.783 14.987,14.433 14.766,13.445 14.507,12.283 14.03,11.387 13.512,11.113 13.369,11.037 13.238,10.999 13.117,11 Z M 9.0002,12 A 1,1 0 0 1 10,13 1,1 0 0 1 9.0002,14 1,1 0 0 1 8.0002,13 1,1 0 0 1 9.0002,12 Z M 12.5,12 A 0.5001,0.49995 0 0 1 13,12.5 0.5001,0.49995 0 0 1 12.5,13 0.5001,0.49995 0 0 1 12,12.5 0.5001,0.49995 0 0 1 12.5,12 Z M 13.5,13 A 0.5001,0.49995 0 0 1 14,13.5 0.5001,0.49995 0 0 1 13.5,14 0.5001,0.49995 0 0 1 13,13.5 0.5001,0.49995 0 0 1 13.5,13 Z"/>
</svg>
