<svg xmlns="http://www.w3.org/2000/svg" width="64" height="64" version="1">
 <rect style="opacity:0.2" width="56" height="36" x="4" y="22" rx="2.8" ry="2.8"/>
 <path style="fill:#006655" d="M 4,46.2 C 4,47.751 5.2488,49 6.8,49 H 57.2 C 58.751,49 60,47.751 60,46.2 V 15.8 C 60,14.249 58.751,13 57.2,13 H 32 C 27.8,13 26.4,7 22.2,7 H 6.8 C 5.2488,7 4,8.2488 4,9.8"/>
 <rect style="opacity:0.2" width="56" height="36" x="4" y="20" rx="2.8" ry="2.8"/>
 <rect style="fill:#e4e4e4" width="48" height="22" x="8" y="16" rx="2.8" ry="2.8"/>
 <rect style="fill:#00a489" width="56" height="36" x="4" y="21" rx="2.8" ry="2.8"/>
 <path style="opacity:0.1;fill:#ffffff" d="M 6.8008,7 C 5.2496,7 4,8.2496 4,9.8008 V 10.801 C 4,9.2496 5.2496,8 6.8008,8 H 22.199 C 26.399,8 27.8,14 32,14 H 57.199 C 58.75,14 60,15.25 60,16.801 V 15.801 C 60,14.25 58.75,13 57.199,13 H 32 C 27.8,13 26.399,7 22.199,7 Z"/>
 <path style="fill:#1d344f" d="M 29,27 C 29,27 30.154,27.706 29.34,29.562 28.108,32.36 30.477,33 30.477,33 30.477,33 29.724,32.344 30.727,30.035 31.835,27.477 29,27 29,27 Z M 33.199,30.855 C 33.199,30.855 31.102,31.787 32.453,34.332 33.346,36.019 32.355,36.855 32.355,36.855 32.355,36.855 34.889,36.02 33.667,33.691 32.569,31.586 33.199,30.855 33.199,30.855 Z M 26.671,31 C 26.671,31 25.169,32.599 26.656,34.562 27.639,35.869 26.996,37 26.996,37 26.996,37 28.857,35.349 27.511,33.543 26.296,31.913 26.671,31 26.671,31 Z M 26.996,37 H 22 L 25,49 H 36 L 36.679,47.031 C 37.012,47.114 37.356,47.172 37.714,47.172 40.08,47.171 42,45.651 42,43.284 42,41.276 40.613,39.604 38.748,39.14 L 39.143,37 26.995,36.999 Z M 38.406,40.519 C 38.422,40.521 38.437,40.524 38.453,40.527 39.215,40.732 39.501,42.132 39.093,43.656 38.694,45.142 37.779,46.202 37.023,46.055 Z"/>
</svg>
