<svg xmlns="http://www.w3.org/2000/svg" width="24" height="24" version="1">
 <rect style="opacity:0.2" width="20" height="12" x="2" y="9.5" rx="1" ry="1"/>
 <path style="fill:#006655" d="M 2,17 C 2,17.554 2.446,18 3,18 H 21 C 21.554,18 22,17.554 22,17 V 6 C 22,5.446 21.554,5 21,5 H 12 C 10.5,5 10,3 8.5,3 H 3 C 2.446,3 2,3.446 2,4"/>
 <rect style="opacity:0.2" width="20" height="12" x="2" y="8.5" rx="1" ry="1"/>
 <rect style="fill:#e4e4e4" width="16" height="8" x="4" y="7" rx="1" ry="1"/>
 <rect style="fill:#00a489" width="20" height="12" x="2" y="9" rx="1" ry="1"/>
 <path style="opacity:0.1;fill:#ffffff" d="M 3,3 C 2.446,3 2,3.446 2,4 V 4.5 C 2,3.946 2.446,3.5 3,3.5 H 8.5 C 10,3.5 10.5,5.5 12,5.5 H 21 C 21.554,5.5 22,5.946 22,6.5 V 6 C 22,5.446 21.554,5 21,5 H 12 C 10.5,5 10,3 8.5,3 Z"/>
 <path style="fill:#1d344f" d="M 11,11 V 12.174 A 3,3 0 0 0 10.709,12.295 L 9.8787,11.465 8.4646,12.879 9.2947,13.709 A 3,3 0 0 0 9.1756,14 H 8 V 16 H 9.1736 A 3,3 0 0 0 9.2947,16.291 L 8.4646,17.121 9.8787,18.535 10.709,17.705 A 3,3 0 0 0 11,17.824 V 19 H 13 V 17.826 A 3,3 0 0 0 13.291,17.705 L 14.121,18.535 15.535,17.121 14.705,16.291 A 3,3 0 0 0 14.824,16 H 16 V 14 H 14.826 A 3,3 0 0 0 14.705,13.709 L 15.535,12.879 14.121,11.465 13.291,12.295 A 3,3 0 0 0 13,12.176 V 11 Z M 12,13 A 2,2 0 0 1 14,15 2,2 0 0 1 12,17 2,2 0 0 1 10,15 2,2 0 0 1 12,13 Z"/>
</svg>
