<svg xmlns="http://www.w3.org/2000/svg" width="16" height="16">
 <path style="fill:#30ba78" d="m 1,2 0,11 c 0,0 0,1 1,1 l 12,0 c 0,0 1,0 1,-1 L 15,4 C 15,3 14,3 14,3 L 9,3 7,1 2,1 C 2,1 1,1 1,2 Z"/>
</svg>
